RLP_Lideranca
…
RLP_Lideranca

Quarto

Quarto enables you to weave together content and executable code into a finished document. To learn more about Quarto see https://quarto.org.

# A tibble: 36,306 x 17
   FUNÇÃO `SUBNÍVEL FUNÇÃO` SEXO  `COR ORIGEM ETNICA` IDADE `ESTADO CIVIL`
   <chr>  <chr>             <chr> <chr>               <dbl> <chr>         
 1 CA     CA-0001           Fem   BRANCA                 36 DIVORCIADO    
 2 CA     CA-0001           Fem   BRANCA                 36 SOLTEIRO      
 3 CA     CA-0001           Fem   BRANCA                 38 SOLTEIRO      
 4 CA     CA-0001           Fem   BRANCA                 39 CASADO        
 5 CA     CA-0001           Fem   BRANCA                 40 CASADO        
 6 CA     CA-0001           Fem   BRANCA                 42 DIVORCIADO    
 7 CA     CA-0001           Fem   BRANCA                 46 CASADO        
 8 CA     CA-0001           Fem   BRANCA                 47 CASADO        
 9 CA     CA-0001           Fem   BRANCA                 47 CASADO        
10 CA     CA-0001           Fem   BRANCA                 49 SOLTEIRO      
# i 36,296 more rows
# i 11 more variables: `DEFICIÊNCIA FÍSICA` <chr>, `GRUPO ESCOLARIDADE` <chr>,
#   ESCOLARIDADE <chr>, `VÍNCULO SERVIDOR` <chr>, `NOME SERVIDOR` <chr>,
#   `NOME SOCIAL SERVIDOR` <dbl>, `DEPENDENTE MENOR DE IDADE?` <chr>,
#   funcao_sg <chr>, `NIVEL FUNCAO TABELAO` <chr>, EQUIVALENCIA <chr>,
#   CATEGORIA <chr>
…
